[
    {
      "studentName": "Yathish",
      "studentId": "S101"
    },
    {
      "studentName": "Pradeep",
      "studentId": "S102"
    },
    {
      "studentName": "Sandeep",
      "studentId": "S103"
    },
    {
      "studentName": "Satya",
      "studentId": "S104"
    },
    {
      "studentName": "Robert",
      "studentId": "S105"
    },
    {
      "studentName": "St John",
      "studentId": "S106"
    },
    {
      "studentName": "Mandy",
      "studentId": "S107"
    },
    {
      "studentName": "Pat",
      "studentId": "S108"
    },
    {
      "studentName": "Rajesh",
      "studentId": "S109"
    },
    {
      "studentName": "Raj",
      "studentId": "S110"
    }

  ]